{
  "project_info": {
    "project_number": "687225795454",
    "firebase_url": "https://lets-play-it.firebaseio.com",
    "project_id": "lets-play-it",
    "storage_bucket": "lets-play-it.appspot.com"
  },
  "client": [
    {
      "client_info": {
        "mobilesdk_app_id": "1:687225795454:android:e6494666719984e2",
        "android_client_info": {
          "package_name": "org.klopt.letsplay"
        }
      },
      "oauth_client": [
        {
          "client_id": "687225795454-6qk618ehf4n46vl850t4dofvpgls1l8l.apps.googleusercontent.com",
          "client_type": 1,
          "android_info": {
            "package_name": "org.klopt.letsplay",
            "certificate_hash": "a9cd0e4cbfcd4035e8e97ee39afcd847f3764c2b"
          }
        },
        {
          "client_id": "687225795454-cn2slkc3c4f3gdnbp20c75bl1lsbk3jo.apps.googleusercontent.com",
          "client_type": 1,
          "android_info": {
            "package_name": "org.klopt.letsplay",
            "certificate_hash": "96237f16281c4b93e2a43a41c031602f23779af4"
          }
        },
        {
          "client_id": "687225795454-37b6n7t57mod4ku7jltrbif0b66nlsfr.apps.googleusercontent.com",
          "client_type": 1,
          "android_info": {
            "package_name": "org.klopt.letsplay",
            "certificate_hash": "3f375d2b3758a93d34d26ac07c3822ca4e6bab73"
          }
        },
        {
          "client_id": "687225795454-l423h65mfnmoqh57dbjsnja4t38jluk8.apps.googleusercontent.com",
          "client_type": 3
        }
      ],
      "api_key": [
        {
          "current_key": "AIzaSyDqN4BuQMrHl3gzQrhb7gBLY3mqzEVFipU"
        }
      ],
      "services": {
        "analytics_service": {
          "status": 1
        },
        "appinvite_service": {
          "status": 2,
          "other_platform_oauth_client": [
            {
              "client_id": "687225795454-l423h65mfnmoqh57dbjsnja4t38jluk8.apps.googleusercontent.com",
              "client_type": 3
            }
          ]
        },
        "ads_service": {
          "status": 2
        }
      }
    }
  ],
  "configuration_version": "1"
}